<?xml version="1.0" encoding="UTF-8" standalone="no"?>
<svg
   xmlns:dc="http://purl.org/dc/elements/1.1/"
   xmlns:cc="http://creativecommons.org/ns#"
   xmlns:rdf="http://www.w3.org/1999/02/22-rdf-syntax-ns#"
   xmlns:svg="http://www.w3.org/2000/svg"
   xmlns="http://www.w3.org/2000/svg"
   xmlns:xlink="http://www.w3.org/1999/xlink"
   xmlns:sodipodi="http://sodipodi.sourceforge.net/DTD/sodipodi-0.dtd"
   xmlns:inkscape="http://www.inkscape.org/namespaces/inkscape"
   version="1.0"
   width="20"
   height="20"
   viewBox="0 0 2 2"
   id="svg0"
   sodipodi:version="0.32"
   inkscape:version="0.91 r13725"
   sodipodi:docname="correct_icon.svg"
   inkscape:output_extension="org.inkscape.output.svg.inkscape"
   inkscape:export-filename="/home/alexanderdoni/WebstormProjects/ThesisProject/public_html/src/images/correct_icon.png"
   inkscape:export-xdpi="90"
   inkscape:export-ydpi="90">
  <metadata
     id="metadata2478">
    <rdf:RDF>
      <cc:Work
         rdf:about="">
        <dc:format>image/svg+xml</dc:format>
        <dc:type
           rdf:resource="http://purl.org/dc/dcmitype/StillImage" />
        <dc:title />
      </cc:Work>
    </rdf:RDF>
  </metadata>
  <sodipodi:namedview
     inkscape:window-height="692"
     inkscape:window-width="1127"
     inkscape:pageshadow="2"
     inkscape:pageopacity="0.0"
     guidetolerance="10.0"
     gridtolerance="10.0"
     objecttolerance="10.0"
     borderopacity="1.0"
     bordercolor="#666666"
     pagecolor="#ffffff"
     id="base"
     showgrid="false"
     inkscape:zoom="5.9612903"
     inkscape:cx="8.403346"
     inkscape:cy="8.3206986"
     inkscape:window-x="0"
     inkscape:window-y="25"
     inkscape:current-layer="svg0"
     inkscape:window-maximized="0" />
  <defs
     id="defs4">
    <radialGradient
       id="shadowGradient">
      <stop
         id="stop17"
         style="stop-color:#c0c0c0;stop-opacity:1"
         offset="0" />
      <stop
         id="stop19"
         style="stop-color:#c0c0c0;stop-opacity:1"
         offset="0.88" />
      <stop
         id="stop21"
         style="stop-color:#c0c0c0;stop-opacity:0"
         offset="1" />
    </radialGradient>
    <linearGradient
       x1="42.986301"
       y1="7.0127001"
       x2="22.0144"
       y2="51.987099"
       id="fieldGradient"
       gradientUnits="userSpaceOnUse">
      <stop
         id="stop7"
         style="stop-color:#1fde00;stop-opacity:1;"
         offset="0" />
      <stop
         id="stop9"
         style="stop-color:#008000;stop-opacity:1;"
         offset="1" />
    </linearGradient>
    <linearGradient
       x1="54.509937"
       y1="41.179295"
       x2="9.5471001"
       y2="16.248501"
       id="edgeGradient"
       gradientUnits="userSpaceOnUse"
       xlink:href="#fieldGradient">
      <stop
         id="stop12"
         style="stop-color:#004000;stop-opacity:1;"
         offset="0" />
      <stop
         id="stop14"
         style="stop-color:#006f00;stop-opacity:1;"
         offset="1" />
    </linearGradient>
    <linearGradient
       inkscape:collect="always"
       xlink:href="#fieldGradient"
       id="linearGradient4145"
       gradientUnits="userSpaceOnUse"
       x1="42.986301"
       y1="7.0127001"
       x2="22.0144"
       y2="51.987099"
       gradientTransform="translate(0,-60)" />
  </defs>
  <g
     id="g4147"
     transform="matrix(0.03875969,0,0,0.03875969,-0.20155039,2.124031)">
    <circle
       style="fill:url(#linearGradient4145);fill-opacity:1;stroke:none;stroke-width:2"
       id="field"
       r="25.799999"
       cy="-29"
       cx="31" />
    <path
       inkscape:connector-curvature="0"
       d="m 10.566224,-20.842613 c 0,0 7.495141,8.44027 8.994168,11.888037 l 6.445819,0 c 2.698245,-8.244655 13.19144,-27.927634 22.185608,-34.823167 1.863497,-2.395918 -2.81789,-3.384897 -6.595723,-1.798826 -5.693746,2.390437 -16.432324,20.641786 -18.438042,25.033764 -2.848149,0.749514 -5.846201,-4.796888 -5.846201,-4.796888 l -6.745629,4.49708 z"
       style="fill:#ffffff;fill-opacity:1;fill-rule:evenodd;stroke:none;stroke-width:1px;stroke-linecap:butt;stroke-linejoin:miter;stroke-opacity:1"
       id="check" />
  </g>
</svg>
