<?xml version="1.0" encoding="UTF-8" standalone="no"?>
<!-- Created with Inkscape (http://www.inkscape.org/) -->

<svg
   xmlns:dc="http://purl.org/dc/elements/1.1/"
   xmlns:cc="http://creativecommons.org/ns#"
   xmlns:rdf="http://www.w3.org/1999/02/22-rdf-syntax-ns#"
   xmlns:svg="http://www.w3.org/2000/svg"
   xmlns="http://www.w3.org/2000/svg"
   xmlns:xlink="http://www.w3.org/1999/xlink"
   xmlns:sodipodi="http://sodipodi.sourceforge.net/DTD/sodipodi-0.dtd"
   xmlns:inkscape="http://www.inkscape.org/namespaces/inkscape"
   width="416"
   height="58"
   viewBox="0 0 416 58.000001"
   id="svg2"
   version="1.1"
   inkscape:version="0.91 r13725"
   sodipodi:docname="credits_button.svg"
   inkscape:export-filename="/home/alexanderdoni/WebstormProjects/ThesisProject/public_html/src/images/credits_button.png"
   inkscape:export-xdpi="90"
   inkscape:export-ydpi="90">
  <defs
     id="defs4">
    <linearGradient
       inkscape:collect="always"
       id="linearGradient4138">
      <stop
         style="stop-color:#132716;stop-opacity:1"
         offset="0"
         id="stop4140" />
      <stop
         style="stop-color:#1fff14;stop-opacity:1"
         offset="1"
         id="stop4142" />
    </linearGradient>
    <radialGradient
       inkscape:collect="always"
       xlink:href="#linearGradient4138"
       id="radialGradient4148"
       cx="102.32143"
       cy="1023.255"
       fx="102.32143"
       fy="1023.255"
       r="100.60714"
       gradientTransform="matrix(2.3166651,-1.4189796e-7,3.5800311e-8,0.68630214,-133.0445,321.10009)"
       gradientUnits="userSpaceOnUse" />
  </defs>
  <sodipodi:namedview
     id="base"
     pagecolor="#ffffff"
     bordercolor="#666666"
     borderopacity="1.0"
     inkscape:pageopacity="0.0"
     inkscape:pageshadow="2"
     inkscape:zoom="2.0408654"
     inkscape:cx="219.70527"
     inkscape:cy="27.634857"
     inkscape:document-units="px"
     inkscape:current-layer="layer1"
     showgrid="false"
     units="px"
     inkscape:window-width="1366"
     inkscape:window-height="695"
     inkscape:window-x="0"
     inkscape:window-y="25"
     inkscape:window-maximized="1" />
  <metadata
     id="metadata7">
    <rdf:RDF>
      <cc:Work
         rdf:about="">
        <dc:format>image/svg+xml</dc:format>
        <dc:type
           rdf:resource="http://purl.org/dc/dcmitype/StillImage" />
        <dc:title></dc:title>
      </cc:Work>
    </rdf:RDF>
  </metadata>
  <g
     inkscape:label="Layer 1"
     inkscape:groupmode="layer"
     id="layer1"
     transform="translate(0,-994.36216)">
    <rect
       style="opacity:1;fill:url(#radialGradient4148);fill-opacity:1;fill-rule:evenodd;stroke:#ffffff;stroke-width:3.22623491;stroke-linecap:square;stroke-linejoin:round;stroke-miterlimit:4;stroke-dasharray:none;stroke-opacity:1"
       id="rect4136"
       width="204.77376"
       height="54.773766"
       x="1.613121"
       y="995.97528"
       ry="16.395271" />
    <flowRoot
       xml:space="preserve"
       id="flowRoot4152"
       style="font-style:normal;font-weight:normal;font-size:27.5px;line-height:125%;font-family:sans-serif;letter-spacing:0px;word-spacing:0px;fill:#000000;fill-opacity:1;stroke:none;stroke-width:1px;stroke-linecap:butt;stroke-linejoin:miter;stroke-opacity:1"
       transform="translate(29.626709,994.26223)"
       inkscape:export-filename="/home/alexanderdoni/WebstormProjects/ThesisProject/public_html/src/images/play_button.png"
       inkscape:export-xdpi="90"
       inkscape:export-ydpi="90"><flowRegion
         id="flowRegion4154"><rect
           id="rect4156"
           width="101.18257"
           height="36.50412"
           x="25.724382"
           y="11.941107"
           style="font-size:27.5px" /></flowRegion><flowPara
         id="flowPara4158"
         style="font-size:27.5px;fill:#ffffff">Credits</flowPara></flowRoot>    <rect
       ry="16.395271"
       y="995.97528"
       x="209.61313"
       height="54.773766"
       width="204.77376"
       id="rect4238"
       style="opacity:1;fill:#1fff14;fill-opacity:1;fill-rule:evenodd;stroke:#ffffff;stroke-width:3.22623491;stroke-linecap:square;stroke-linejoin:round;stroke-miterlimit:4;stroke-dasharray:none;stroke-opacity:1"
       inkscape:export-filename="/home/alexanderdoni/WebstormProjects/ThesisProject/public_html/src/images/play_button.png"
       inkscape:export-xdpi="90"
       inkscape:export-ydpi="90" />
    <flowRoot
       inkscape:export-ydpi="90"
       inkscape:export-xdpi="90"
       inkscape:export-filename="/home/alexanderdoni/WebstormProjects/ThesisProject/public_html/src/images/play_button.png"
       transform="translate(237.62672,994.26223)"
       style="font-style:normal;font-weight:normal;font-size:27.5px;line-height:125%;font-family:sans-serif;letter-spacing:0px;word-spacing:0px;fill:#000000;fill-opacity:1;stroke:none;stroke-width:1px;stroke-linecap:butt;stroke-linejoin:miter;stroke-opacity:1"
       id="flowRoot4240"
       xml:space="preserve"><flowRegion
         id="flowRegion4242"><rect
           style="font-size:27.5px"
           y="11.941107"
           x="25.724382"
           height="36.01413"
           width="105.10248"
           id="rect4244" /></flowRegion><flowPara
         style="font-size:27.5px;fill:#ffffff"
         id="flowPara4246">Credits</flowPara></flowRoot>  </g>
</svg>
