<?xml version="1.0" encoding="UTF-8" standalone="no"?>
<!-- Created with Inkscape (http://www.inkscape.org/) -->

<svg
   xmlns:dc="http://purl.org/dc/elements/1.1/"
   xmlns:cc="http://creativecommons.org/ns#"
   xmlns:rdf="http://www.w3.org/1999/02/22-rdf-syntax-ns#"
   xmlns:svg="http://www.w3.org/2000/svg"
   xmlns="http://www.w3.org/2000/svg"
   xmlns:xlink="http://www.w3.org/1999/xlink"
   xmlns:sodipodi="http://sodipodi.sourceforge.net/DTD/sodipodi-0.dtd"
   xmlns:inkscape="http://www.inkscape.org/namespaces/inkscape"
   width="800"
   height="600"
   id="svg11885"
   version="1.1"
   inkscape:version="0.91 r13725"
   viewBox="0 0 800 600"
   sodipodi:docname="pda.svg"
   inkscape:export-filename="/home/alexanderdoni/WebstormProjects/ThesisProject/public_html/src/images/pda.png"
   inkscape:export-xdpi="90"
   inkscape:export-ydpi="90">
  <defs
     id="defs11887">
    <linearGradient
       gradientUnits="userSpaceOnUse"
       gradientTransform="matrix(1.1866924,0,0,0.84267835,22.43204,-10.6689)"
       xlink:href="#linearGradient3225"
       id="linearGradient3508"
       x1="-6.8758403"
       y1="25.132814"
       x2="71.651476"
       y2="191.85337" />
    <linearGradient
       id="linearGradient3225">
      <stop
         offset="0"
         id="stop3227"
         stop-color="#ffffff" />
      <stop
         offset="1"
         id="stop3229"
         stop-opacity="0"
         stop-color="#ffffff" />
    </linearGradient>
    <filter
       id="filter3280">
      <feGaussianBlur
         stdDeviation="1.022422"
         id="feGaussianBlur3282" />
    </filter>
    <linearGradient
       gradientUnits="userSpaceOnUse"
       gradientTransform="matrix(1.1866924,0,0,0.84267835,13.432038,-14.33557)"
       xlink:href="#linearGradient3225"
       id="linearGradient3508-3"
       x1="-6.8758403"
       y1="25.132814"
       x2="71.651476"
       y2="191.85337" />
    <filter
       id="filter3280-3">
      <feGaussianBlur
         stdDeviation="1.022422"
         id="feGaussianBlur3282-1" />
    </filter>
    <radialGradient
       inkscape:collect="always"
       xlink:href="#linearGradient3225"
       id="radialGradient13192"
       cx="69.534538"
       cy="10.307741"
       fx="69.534538"
       fy="10.307741"
       r="196.62621"
       gradientTransform="matrix(5.5915748e-4,0.94349803,-1.8049633,0.00124562,50.232882,-38.118534)"
       gradientUnits="userSpaceOnUse" />
  </defs>
  <sodipodi:namedview
     id="base"
     pagecolor="#ffffff"
     bordercolor="#666666"
     borderopacity="1.0"
     inkscape:pageopacity="0.0"
     inkscape:pageshadow="2"
     inkscape:zoom="1.2"
     inkscape:cx="518.38835"
     inkscape:cy="231.07956"
     inkscape:current-layer="layer1"
     inkscape:document-units="px"
     showgrid="false"
     inkscape:window-width="1366"
     inkscape:window-height="695"
     inkscape:window-x="0"
     inkscape:window-y="25"
     inkscape:window-maximized="1" />
  <metadata
     id="metadata11890">
    <rdf:RDF>
      <cc:Work
         rdf:about="">
        <dc:format>image/svg+xml</dc:format>
        <dc:type
           rdf:resource="http://purl.org/dc/dcmitype/StillImage" />
        <dc:title />
      </cc:Work>
    </rdf:RDF>
  </metadata>
  <g
     id="layer1"
     inkscape:label="Layer 1"
     inkscape:groupmode="layer">
    <path
       style="fill:#333333;stroke-width:1.39999998;stroke-miterlimit:4"
       inkscape:connector-curvature="0"
       stroke-miterlimit="4"
       d="m 23.139834,16.126176 754.172906,0 c 7.64726,0 13.8056,6.804213 13.8056,15.256274 l 0,519.22671 c 0,8.45226 -6.16544,14.86066 -13.8056,15.25726 0,0 -188.92548,19.63358 -377.46713,19.63358 -188.54347,0 -376.705776,-19.63358 -376.705776,-19.63358 -7.640313,-0.39856 -13.806501,-6.805 -13.806501,-15.25726 l 0,-519.22671 c 0,-8.452061 6.157695,-15.256274 13.806501,-15.256274 z"
       id="path3304" />
    <path
       style="fill:#434343;stroke-width:1.39999998;stroke-miterlimit:4;fill-opacity:1"
       inkscape:connector-curvature="0"
       stroke-miterlimit="4"
       d="m 23.139834,10.236103 754.172906,0 c 7.64726,0 13.8056,6.804212 13.8056,15.256272 l 0,519.226705 c 0,8.45226 -6.16544,14.86066 -13.8056,15.25727 0,0 -188.92548,19.63358 -377.46713,19.63358 -188.54347,0 -376.705776,-19.63358 -376.705776,-19.63358 -7.640313,-0.39857 -13.806501,-6.80501 -13.806501,-15.25727 l 0,-519.226705 c 0,-8.45206 6.157695,-15.256272 13.806501,-15.256272 z"
       id="path3379" />
    <path
       style="fill:none;fill-rule:evenodd;stroke:#000000;stroke-width:1.86774278px"
       inkscape:connector-curvature="0"
       d="m 450.12516,578.1374 0,0 z"
       id="path3209" />
    <path
       style="fill:url(#radialGradient13192);fill-rule:evenodd;stroke:none;stroke-width:1.00692618px;stroke-linecap:butt;stroke-linejoin:miter;stroke-opacity:1;fill-opacity:1;opacity:0.348"
       d="M 402.7545,11.51727 19.152455,10.919819 c -7.66025,4.116593 -9.6582963,9.505041 -9.6485959,18.13936 L 9.7244482,225.40499 44.845825,225.82266 44.78343,52.5815 402.75624,51.402988 Z"
       id="path13107"
       inkscape:connector-curvature="0"
       sodipodi:nodetypes="ccsccccc"
       inkscape:export-filename="/home/alexanderdoni/WebstormProjects/ThesisProject/public_html/src/images/pad.png"
       inkscape:export-xdpi="91.382698"
       inkscape:export-ydpi="91.382698" />
    <g
       id="g13194"
       transform="matrix(1.0462526,0,0,1,-18.550987,0)"
       inkscape:export-filename="/home/alexanderdoni/WebstormProjects/ThesisProject/public_html/src/images/pad.png"
       inkscape:export-xdpi="91.382698"
       inkscape:export-ydpi="91.382698">
      <g
         style="fill:#666666;fill-opacity:1"
         externalResourcesRequired="false"
         id="g3033"
         transform="matrix(1.7767841,0,0,1.963358,0.4494129,-38.357008)">
        <g
           style="fill:#666666;fill-opacity:1"
           externalResourcesRequired="false"
           id="g3026">
          <rect
             ry="0.36721301"
             y="46.82143"
             x="24.714298"
             height="224"
             width="400"
             id="rect2427"
             stroke-miterlimit="4"
             style="fill:#666666;fill-opacity:1;stroke-width:1.39999998;stroke-miterlimit:4" />
        </g>
      </g>
      <path
         sodipodi:nodetypes="cccccc"
         id="rect3018"
         d="m 44.758914,53.228814 1.205128,442.493916 161.891728,0.14702 499.34917,-0.45406 C 745.22458,494.4813 757.79857,51.860304 757.79857,51.860304 Z"
         stroke-miterlimit="4"
         inkscape:connector-curvature="0"
         style="opacity:0.83699999;fill:#000000;fill-opacity:1;stroke-width:1.39999998;stroke-miterlimit:4" />
    </g>
  </g>
</svg>
