<?xml version="1.0" encoding="UTF-8" standalone="no"?>
<!-- Generator: Adobe Illustrator 15.0.2, SVG Export Plug-In . SVG Version: 6.00 Build 0)  -->

<svg
   xmlns:dc="http://purl.org/dc/elements/1.1/"
   xmlns:cc="http://creativecommons.org/ns#"
   xmlns:rdf="http://www.w3.org/1999/02/22-rdf-syntax-ns#"
   xmlns:svg="http://www.w3.org/2000/svg"
   xmlns="http://www.w3.org/2000/svg"
   xmlns:sodipodi="http://sodipodi.sourceforge.net/DTD/sodipodi-0.dtd"
   xmlns:inkscape="http://www.inkscape.org/namespaces/inkscape"
   version="1.1"
   id="Layer_1"
   x="0px"
   y="0px"
   width="40"
   height="40"
   viewBox="0 0 40 39.999999"
   enable-background="new 0 0 512 597.333"
   xml:space="preserve"
   inkscape:version="0.91 r13725"
   sodipodi:docname="send_button.svg"
   inkscape:export-filename="/home/alexanderdoni/WebstormProjects/ThesisProject/public_html/src/images/send_button.png"
   inkscape:export-xdpi="90"
   inkscape:export-ydpi="90"><metadata
     id="metadata9"><rdf:RDF><cc:Work
         rdf:about=""><dc:format>image/svg+xml</dc:format><dc:type
           rdf:resource="http://purl.org/dc/dcmitype/StillImage" /><dc:title></dc:title></cc:Work></rdf:RDF></metadata><defs
     id="defs7" /><sodipodi:namedview
     pagecolor="#ffffff"
     bordercolor="#666666"
     borderopacity="1"
     objecttolerance="10"
     gridtolerance="10"
     guidetolerance="10"
     inkscape:pageopacity="0"
     inkscape:pageshadow="2"
     inkscape:window-width="1280"
     inkscape:window-height="1001"
     id="namedview5"
     showgrid="false"
     inkscape:zoom="6.321432"
     inkscape:cx="21.782404"
     inkscape:cy="49.749695"
     inkscape:window-x="1366"
     inkscape:window-y="0"
     inkscape:window-maximized="1"
     inkscape:current-layer="Layer_1" /><path
     d="m 25.343969,-0.08453486 9.872469,0 L 40,4.6990284 l 0,12.3151296 -14.656031,0 0,-17.09869286 z m 1.628452,1.62844896 0,13.8418179 11.399157,0 0,-8.9564637 -4.885383,0 0,-4.8853542 -6.513774,0 z m 8.142226,0.5088984 0,2.7480054 2.748005,0 -2.748005,-2.7480054 z m -7.328016,0.3053139 4.885353,0 0,2.0355581 -4.885353,0 0,-2.0355581 z m 0,2.8497962 4.885353,0 0,1.2213457 -4.885353,0 0,-1.2213457 z m 0,2.035558 9.770706,0 0,1.2213457 -9.770706,0 0,-1.2213457 z m 0,2.0355565 9.770706,0 0,1.2213169 -9.770706,0 0,-1.2213169 z m 0,2.0355829 9.770706,0 0,1.221318 -9.770706,0 0,-1.221318 z m 0,2.03553 9.770706,0 0,1.221347 -9.770706,0 0,-1.221347 z"
     id="path3"
     style="fill:#00aa11;fill-opacity:1"
     inkscape:connector-curvature="0" /><path
     style="fill:#00aa11;fill-opacity:1;fill-rule:evenodd;stroke:none;stroke-width:1px;stroke-linecap:butt;stroke-linejoin:miter;stroke-opacity:1"
     d="M 9,40 9,16 0,16 12,0.06646572 24,16 l -9,0 0.17958,24 z"
     id="path4152"
     inkscape:connector-curvature="0"
     sodipodi:nodetypes="cccccccc" /></svg>